%YAML 1.1
%TAG !u! tag:unity3d.com,2011:
--- !u!1 &100000
GameObject:
  m_ObjectHideFlags: 0
  m_PrefabParentObject: {fileID: 0}
  m_PrefabInternal: {fileID: 100100000}
  serializedVersion: 4
  m_Component:
  - 4: {fileID: 400000}
  - 114: {fileID: 11400000}
  - 114: {fileID: 11400002}
  - 114: {fileID: 11400004}
  - 114: {fileID: 11400008}
  m_Layer: 0
  m_Name: Detonator-MultiExample
  m_TagString: Untagged
  m_Icon: {fileID: 0}
  m_NavMeshLayer: 0
  m_StaticEditorFlags: 0
  m_IsActive: 1
--- !u!1002 &100001
EditorExtensionImpl:
  serializedVersion: 6
--- !u!4 &400000
Transform:
  m_ObjectHideFlags: 1
  m_PrefabParentObject: {fileID: 0}
  m_PrefabInternal: {fileID: 100100000}
  m_GameObject: {fileID: 100000}
  m_LocalRotation: {x: 0, y: 0, z: 0, w: 1}
  m_LocalPosition: {x: 3.66128922, y: -4.21486664, z: 38.0237236}
  m_LocalScale: {x: 1, y: 1, z: 1}
  m_Children: []
  m_Father: {fileID: 0}
  m_RootOrder: 0
--- !u!1002 &400001
EditorExtensionImpl:
  serializedVersion: 6
--- !u!114 &11400000
MonoBehaviour:
  m_ObjectHideFlags: 1
  m_PrefabParentObject: {fileID: 0}
  m_PrefabInternal: {fileID: 100100000}
  m_GameObject: {fileID: 100000}
  m_Enabled: 1
  m_EditorHideFlags: 0
  m_Script: {fileID: 11500000, guid: 9b4007f1233a9b74fa9be42583fafba6, type: 3}
  m_Name: 
  m_EditorClassIdentifier: 
  size: 7.5
  color: {r: 1, g: .423000008, b: 0, a: .36470589}
  explodeOnStart: 1
  duration: 2.42057562
  detail: 1.04561079
  upwardsBias: 0
  destroyTime: 7
  useWorldSpace: 1
  direction: {x: 0, y: 0, z: 0}
  fireballAMaterial: {fileID: 0}
  fireballBMaterial: {fileID: 0}
  smokeAMaterial: {fileID: 0}
  smokeBMaterial: {fileID: 0}
  shockwaveMaterial: {fileID: 0}
  sparksMaterial: {fileID: 0}
  glowMaterial: {fileID: 0}
  heatwaveMaterial: {fileID: 0}
  autoCreateFireball: 1
  autoCreateSparks: 1
  autoCreateShockwave: 1
  autoCreateSmoke: 1
  autoCreateGlow: 1
  autoCreateLight: 1
  autoCreateForce: 1
  autoCreateHeatwave: 0
--- !u!1002 &11400001
EditorExtensionImpl:
  serializedVersion: 6
--- !u!114 &11400002
MonoBehaviour:
  m_ObjectHideFlags: 1
  m_PrefabParentObject: {fileID: 0}
  m_PrefabInternal: {fileID: 100100000}
  m_GameObject: {fileID: 100000}
  m_Enabled: 1
  m_EditorHideFlags: 0
  m_Script: {fileID: 11500000, guid: edba693a4a231da4e9434948a5dec7ee, type: 3}
  m_Name: 
  m_EditorClassIdentifier: 
  on: 1
  detonatorControlled: 1
  startSize: 1
  size: 1.32950032
  explodeDelayMin: .404361308
  explodeDelayMax: .355543762
  startDuration: 2
  duration: 3
  timeScale: 1
  startDetail: 1
  detail: 1
  startColor: {r: 1, g: 1, b: 1, a: 1}
  color: {r: 0, g: .769230604, b: 1, a: 1}
  startLocalPosition: {x: 0, y: 0, z: 0}
  localPosition: {x: 8.41618538, y: 0, z: 0}
  startForce: {x: 0, y: 0, z: 0}
  force: {x: 4.13127327, y: 0, z: 0}
  startVelocity: {x: 0, y: 0, z: 0}
  velocity: {x: 0, y: 0, z: 0}
  detailThreshold: 0
  fireballAMaterial: {fileID: 0}
  fireballBMaterial: {fileID: 0}
  fireShadowMaterial: {fileID: 0}
  drawFireballA: 1
  drawFireballB: 1
  drawFireShadow: 1
--- !u!1002 &11400003
EditorExtensionImpl:
  serializedVersion: 6
--- !u!114 &11400004
MonoBehaviour:
  m_ObjectHideFlags: 1
  m_PrefabParentObject: {fileID: 0}
  m_PrefabInternal: {fileID: 100100000}
  m_GameObject: {fileID: 100000}
  m_Enabled: 1
  m_EditorHideFlags: 0
  m_Script: {fileID: 11500000, guid: edba693a4a231da4e9434948a5dec7ee, type: 3}
  m_Name: 
  m_EditorClassIdentifier: 
  on: 1
  detonatorControlled: 1
  startSize: 1
  size: 1
  explodeDelayMin: .0634094998
  explodeDelayMax: .0951471329
  startDuration: 2
  duration: 3
  timeScale: 1
  startDetail: 1
  detail: 1
  startColor: {r: 1, g: 1, b: 1, a: 1}
  color: {r: 1, g: 0, b: .784615517, a: 1}
  startLocalPosition: {x: 0, y: 0, z: 0}
  localPosition: {x: 7.27514982, y: 9.62350464, z: 0}
  startForce: {x: 0, y: 0, z: 0}
  force: {x: 0, y: 0, z: 0}
  startVelocity: {x: 0, y: 0, z: 0}
  velocity: {x: 0, y: 0, z: 0}
  detailThreshold: .569999933
  fireballAMaterial: {fileID: 0}
  fireballBMaterial: {fileID: 0}
  fireShadowMaterial: {fileID: 0}
  drawFireballA: 1
  drawFireballB: 1
  drawFireShadow: 1
--- !u!1002 &11400005
EditorExtensionImpl:
  serializedVersion: 6
--- !u!114 &11400008
MonoBehaviour:
  m_ObjectHideFlags: 1
  m_PrefabParentObject: {fileID: 0}
  m_PrefabInternal: {fileID: 100100000}
  m_GameObject: {fileID: 100000}
  m_Enabled: 1
  m_EditorHideFlags: 0
  m_Script: {fileID: 11500000, guid: edba693a4a231da4e9434948a5dec7ee, type: 3}
  m_Name: 
  m_EditorClassIdentifier: 
  on: 1
  detonatorControlled: 1
  startSize: 1
  size: 1
  explodeDelayMin: .119999997
  explodeDelayMax: .269999981
  startDuration: 2
  duration: 3
  timeScale: 1
  startDetail: 1
  detail: 1
  startColor: {r: 1, g: 1, b: 1, a: 1}
  color: {r: .153846025, g: 1, b: 0, a: 1}
  startLocalPosition: {x: 0, y: 0, z: 0}
  localPosition: {x: -1.26369286, y: -.569999933, z: 0}
  startForce: {x: 0, y: 0, z: 0}
  force: {x: 0, y: 0, z: 0}
  startVelocity: {x: 0, y: 0, z: 0}
  velocity: {x: 0, y: 0, z: 0}
  detailThreshold: .241737723
  fireballAMaterial: {fileID: 0}
  fireballBMaterial: {fileID: 0}
  fireShadowMaterial: {fileID: 0}
  drawFireballA: 1
  drawFireballB: 1
  drawFireShadow: 1
--- !u!1002 &11400009
EditorExtensionImpl:
  serializedVersion: 6
--- !u!1001 &100100000
Prefab:
  m_ObjectHideFlags: 1
  serializedVersion: 2
  m_Modification:
    m_TransformParent: {fileID: 0}
    m_Modifications: []
    m_RemovedComponents: []
  m_ParentPrefab: {fileID: 0}
  m_RootGameObject: {fileID: 100000}
  m_IsPrefabParent: 1
  m_IsExploded: 1
--- !u!1002 &100100001
EditorExtensionImpl:
  serializedVersion: 6
